<?xml version="1.0" encoding="utf-8"?>
<!-- Generator: Adobe Illustrator 19.0.0, SVG Export Plug-In . SVG Version: 6.00 Build 0)  -->
<svg version="1.1" id="Layer_2" xmlns="http://www.w3.org/2000/svg" xmlns:xlink="http://www.w3.org/1999/xlink" x="0px" y="0px"
	 viewBox="6.8 0 19.3 16.3" style="enable-background:new 6.8 0 19.3 16.3;" xml:space="preserve">
<g>
	<path d="M23.1,9.6c0.4,0,0.7,0.3,0.7,0.7s-0.3,0.7-0.7,0.7h-1.9c-0.2,0-0.4-0.2-0.4-0.4V10c0-0.2,0.2-0.4,0.4-0.4H23.1 M23.1,8.9
		h-1.9c-0.6,0-1.1,0.5-1.1,1.1v0.7c0,0.6,0.5,1.1,1.1,1.1h1.9c0.8,0,1.5-0.7,1.5-1.5S23.9,8.9,23.1,8.9L23.1,8.9z"/>
	<path d="M11.6,9.6c0.2,0,0.4,0.2,0.4,0.4v0.7c0,0.2-0.2,0.4-0.4,0.4H9.7c-0.4,0-0.7-0.3-0.7-0.7s0.3-0.7,0.7-0.7H11.6 M11.6,8.9
		H9.7c-0.8,0-1.5,0.7-1.5,1.5s0.7,1.5,1.5,1.5h1.9c0.6,0,1.1-0.5,1.1-1.1V10C12.7,9.4,12.2,8.9,11.6,8.9L11.6,8.9z"/>
	<path d="M26,5.9V5.2c0-0.4-0.3-0.7-0.7-0.7h-0.8c-0.7-2.2-2-4.4-4.4-4.4h-7.4C10.4,0,9,2.3,8.3,4.4H7.5c-0.4,0-0.7,0.3-0.7,0.7v0.7
		c0,0.6,0.4,1.1,0.9,1.3c0,0.1,0,0.3-0.1,0.4c-0.7,0.5-0.8,1.1-0.8,2v4.4c0,0.4,0.3,0.7,0.7,0.7c0,0.8,0.7,1.5,1.5,1.5h1.5
		c0.8,0,1.5-0.7,1.5-1.5h8.9c0,0.8,0.7,1.5,1.5,1.5h1.5c0.8,0,1.5-0.7,1.5-1.5c0.4,0,0.7-0.3,0.7-0.7V9.6c0-0.9-0.1-1.5-0.8-2
		c0-0.1,0-0.2-0.1-0.4C25.7,7,26,6.5,26,5.9z M12.7,0.7h7.4c1.5,0,2.7,1.2,3.6,3.6c0.4,1.1,0.6,2.2,0.8,3c-1.3-0.4-3.7-0.6-8-0.6
		s-6.7,0.2-8,0.6c0.1-0.8,0.4-1.9,0.8-3C10,1.9,11.2,0.7,12.7,0.7z M7.5,5.9V5.2h0.6C8,5.6,7.9,6.1,7.8,6.5C7.6,6.3,7.5,6.1,7.5,5.9
		z M18.6,14.1h-2.2h-2.2v-1.5h4.4V14.1z M25.3,9.6v4.4h-0.7v0.7c0,0.4-0.3,0.7-0.7,0.7h-1.5c-0.4,0-0.7-0.3-0.7-0.7v-0.7h-0.7h-1.5
		v-1.9c0-0.2-0.2-0.4-0.4-0.4h-5.2c-0.2,0-0.4,0.2-0.4,0.4v1.9H12h-0.7v0.7c0,0.4-0.3,0.7-0.7,0.7H9c-0.4,0-0.7-0.3-0.7-0.7v-0.7
		H7.5V9.6c0-1.5,0-2.2,8.9-2.2S25.3,8.2,25.3,9.6z M25.3,5.9c0,0.2-0.1,0.4-0.3,0.5c-0.1-0.4-0.2-0.8-0.3-1.3h0.6V5.9z"/>
</g>
</svg>
