<?xml version="1.0" encoding="utf-8"?>
<!-- Generator: Adobe Illustrator 19.0.0, SVG Export Plug-In . SVG Version: 6.00 Build 0)  -->
<svg version="1.1" id="Шар_1" xmlns="http://www.w3.org/2000/svg" xmlns:xlink="http://www.w3.org/1999/xlink" x="0px" y="0px"
	 viewBox="13.7 0 71 66.3" style="enable-background:new 13.7 0 71 66.3;" xml:space="preserve">
<path d="M15.2,66.3c-0.8,0-1.5-0.7-1.5-1.5C13.7,56.2,20.6,50,30,50h3.7l3.9-5.9c0.5-0.7,1.4-0.9,2.1-0.4c0.7,0.5,0.9,1.4,0.4,2.1
	l-4.4,6.5c-0.3,0.4-0.7,0.7-1.2,0.7H30c-7.8,0-13.3,4.9-13.3,11.9C16.7,65.6,16,66.3,15.2,66.3z"/>
<path d="M83.3,66.3c-0.8,0-1.5-0.7-1.5-1.5c0-7-5.5-11.9-13.3-11.9H64c-0.5,0-1-0.2-1.2-0.7l-4.4-6.5c-0.5-0.7-0.3-1.6,0.4-2.1
	c0.7-0.5,1.6-0.3,2.1,0.4l3.9,5.9h3.7c9.4,0,16.3,6.2,16.3,14.8C84.8,65.6,84.1,66.3,83.3,66.3z"/>
<path d="M49.3,63.3c-0.3,0-0.6-0.1-0.9-0.3L33.6,52.7c-0.7-0.5-0.8-1.4-0.4-2.1s1.4-0.8,2.1-0.4l14,9.8l13.9-9.8
	c0.7-0.5,1.6-0.3,2.1,0.4c0.5,0.7,0.3,1.6-0.4,2.1L50.1,63C49.9,63.2,49.6,63.3,49.3,63.3z"/>
<path d="M49.3,54.4c-8.4,0-12.9-8.8-13.3-18c-2.1-0.5-4.5-2.1-4.5-4.3v-5.9c0-1.9,1.8-3.2,3-3.9V11.5c0-0.8,0.7-1.5,1.5-1.5
	c0.8,0,1.5,0.7,1.5,1.5v11.9c0,0.6-0.3,1.1-0.9,1.4c-1.1,0.5-2,1.3-2.1,1.6v5.9c0.1,0.5,1.7,1.5,3,1.5c0.8,0,1.5,0.7,1.5,1.5
	c0,6.6,2.8,16.3,10.4,16.3c7.6,0,10.4-9.7,10.4-16.3c0-0.8,0.7-1.5,1.5-1.5c1.2,0,2.9-1,3-1.5v-5.9c0-1.5,0-1.5-1.5-1.5
	c-0.8,0-1.5-0.7-1.5-1.5V11.5c0-0.8,0.7-1.5,1.5-1.5c0.8,0,1.5,0.7,1.5,1.5V22c3,0.6,3,3,3,4.3v5.9c0,2.2-2.3,3.7-4.5,4.3
	C62.2,45.6,57.6,54.4,49.3,54.4z"/>
<path d="M49.3,13.9c-0.1,0-0.2,0-0.3,0l-27-5.7c-0.7-0.1-1.2-0.8-1.2-1.5s0.5-1.3,1.2-1.4l27-5.4c0.2,0,0.4,0,0.6,0l27.9,5.4
	c0.7,0.1,1.2,0.7,1.2,1.4c0,0.7-0.5,1.3-1.2,1.5l-27.9,5.7C49.5,13.9,49.4,13.9,49.3,13.9z M29.6,6.8l19.7,4.1l20.3-4.1l-20.3-4
	L29.6,6.8z"/>
<path d="M49.3,22.2c-5,0-9.9-0.7-13.8-2c-0.8-0.3-1.2-1.1-0.9-1.9c0.3-0.8,1.1-1.2,1.9-0.9c7.1,2.4,18.6,2.4,25.7,0
	c0.8-0.3,1.6,0.2,1.9,0.9c0.3,0.8-0.2,1.6-0.9,1.9C59.2,21.5,54.3,22.2,49.3,22.2z"/>
<path d="M77.4,35.2h-6c-0.5,0-0.9-0.2-1.2-0.6c-0.3-0.4-0.4-0.8-0.3-1.3l3-13.2V8.5C73,7.7,73.6,7,74.5,7c0.8,0,1.5,0.7,1.5,1.5
	v11.7l2.9,13.2c0.1,0.4,0,0.9-0.3,1.3C78.3,35,77.9,35.2,77.4,35.2z M73.3,32.2h2.3l-1.1-5.1L73.3,32.2z"/>
</svg>
