<svg xmlns="http://www.w3.org/2000/svg" xmlns:xlink="http://www.w3.org/1999/xlink" preserveAspectRatio="xMidYMid" width="21.21" height="27.72" viewBox="0 0 21.21 27.72">
  <defs>
    <style>
      .cls-1 {
        fill: #007b9e;
        fill-rule: evenodd;
      }
    </style>
  </defs>
  <path d="M10.950,12.698 C10.946,12.527 10.852,12.373 10.707,12.292 C10.559,12.213 10.381,12.218 10.240,12.310 C9.545,12.754 8.746,13.237 7.682,13.870 C4.806,15.584 1.545,17.527 0.675,19.189 C-0.797,22.003 0.245,25.517 2.997,27.021 C3.819,27.470 4.740,27.707 5.661,27.707 C6.217,27.707 6.773,27.622 7.310,27.454 C8.759,27.008 9.950,26.011 10.661,24.648 C11.530,22.989 11.303,19.149 11.101,15.738 C11.024,14.474 10.973,13.525 10.950,12.698 ZM9.844,24.200 C9.247,25.340 8.253,26.174 7.041,26.546 C5.846,26.921 4.540,26.788 3.435,26.184 C1.133,24.926 0.262,21.989 1.493,19.636 C2.240,18.211 5.655,16.176 8.150,14.691 C8.894,14.247 9.510,13.877 10.053,13.541 C10.080,14.186 10.121,14.923 10.176,15.819 C10.350,18.756 10.588,22.778 9.844,24.200 ZM12.851,3.408 C12.838,3.168 12.824,2.940 12.814,2.724 C12.806,2.558 12.713,2.408 12.570,2.330 C12.426,2.250 12.251,2.257 12.113,2.341 C11.882,2.482 11.631,2.632 11.364,2.792 C9.712,3.774 8.314,4.648 7.930,5.383 C7.592,6.028 7.521,6.769 7.729,7.471 C7.937,8.172 8.399,8.748 9.030,9.093 C9.421,9.306 9.857,9.418 10.292,9.418 C10.556,9.418 10.820,9.378 11.072,9.300 C11.757,9.090 12.321,8.617 12.660,7.969 C13.046,7.234 12.976,5.487 12.862,3.611 L12.851,3.408 ZM11.842,7.521 C11.620,7.945 11.252,8.254 10.804,8.391 C10.356,8.529 9.882,8.482 9.467,8.256 C9.056,8.031 8.753,7.655 8.617,7.196 C8.481,6.737 8.528,6.251 8.748,5.830 C9.039,5.272 10.925,4.149 11.832,3.610 C11.865,3.590 11.898,3.571 11.929,3.552 L11.936,3.666 C12.001,4.737 12.135,6.962 11.842,7.521 ZM1.476,13.794 C1.780,13.960 2.120,14.046 2.460,14.046 C2.665,14.046 2.871,14.015 3.068,13.953 C3.602,13.789 4.041,13.421 4.305,12.916 C4.603,12.344 4.551,11.046 4.468,9.655 L4.432,9.007 C4.425,8.840 4.332,8.690 4.189,8.613 C4.045,8.533 3.873,8.538 3.732,8.622 L3.183,8.952 C1.955,9.684 0.914,10.336 0.617,10.902 C0.074,11.940 0.458,13.236 1.476,13.794 ZM1.437,11.349 C1.623,10.994 2.899,10.221 3.547,9.833 C3.591,10.554 3.674,12.108 3.487,12.471 C3.339,12.750 3.096,12.954 2.799,13.046 C2.502,13.138 2.188,13.106 1.914,12.957 C1.349,12.647 1.134,11.926 1.437,11.349 ZM17.424,5.214 C17.728,5.381 18.070,5.468 18.410,5.468 C18.614,5.468 18.819,5.437 19.018,5.375 C19.553,5.210 19.993,4.842 20.254,4.338 C20.552,3.769 20.505,2.523 20.418,1.076 L20.412,0.960 C20.399,0.772 20.390,0.596 20.381,0.429 C20.373,0.262 20.280,0.113 20.138,0.034 C19.993,-0.045 19.819,-0.040 19.680,0.045 C19.512,0.148 19.330,0.258 19.133,0.375 C17.904,1.106 16.863,1.757 16.568,2.325 C16.304,2.826 16.249,3.404 16.411,3.951 C16.573,4.497 16.933,4.946 17.424,5.214 ZM17.386,2.771 C17.573,2.413 18.852,1.639 19.499,1.254 C19.544,2.019 19.624,3.533 19.436,3.893 C19.290,4.172 19.046,4.376 18.750,4.468 C18.453,4.560 18.138,4.528 17.862,4.378 C17.588,4.230 17.390,3.980 17.298,3.676 C17.210,3.371 17.240,3.050 17.386,2.771 ZM17.007,21.248 C16.997,21.081 16.904,20.932 16.759,20.854 C16.616,20.778 16.442,20.781 16.304,20.868 C16.167,20.952 16.022,21.039 15.867,21.132 L15.759,21.197 C14.531,21.926 13.490,22.577 13.195,23.145 C12.650,24.183 13.035,25.480 14.051,26.036 C14.355,26.202 14.694,26.290 15.034,26.290 C15.240,26.290 15.445,26.258 15.645,26.197 C16.179,26.032 16.619,25.664 16.881,25.160 C17.179,24.588 17.129,23.290 17.044,21.899 L17.007,21.248 ZM16.063,24.714 C15.917,24.993 15.672,25.198 15.375,25.290 C15.078,25.382 14.762,25.350 14.490,25.200 C13.924,24.892 13.710,24.169 14.013,23.592 C14.199,23.235 15.476,22.462 16.125,22.077 C16.168,22.797 16.251,24.353 16.063,24.714 ZM21.093,10.376 C21.068,9.964 21.046,9.581 21.029,9.226 C21.019,9.059 20.926,8.909 20.782,8.831 C20.640,8.754 20.466,8.759 20.325,8.843 C20.029,9.025 19.706,9.219 19.341,9.435 C17.300,10.652 15.430,11.819 14.951,12.733 C14.084,14.393 14.698,16.467 16.323,17.358 C16.809,17.622 17.353,17.762 17.896,17.762 C18.224,17.762 18.551,17.712 18.867,17.614 C19.721,17.350 20.422,16.762 20.847,15.956 C21.327,15.037 21.236,12.793 21.093,10.376 ZM20.029,15.508 C19.724,16.091 19.216,16.515 18.598,16.706 C17.991,16.897 17.323,16.828 16.761,16.520 C15.587,15.878 15.143,14.379 15.770,13.180 C16.163,12.427 18.534,11.014 19.821,10.247 C19.932,10.181 20.040,10.118 20.145,10.056 C20.152,10.179 20.159,10.305 20.167,10.434 C20.257,11.942 20.424,14.751 20.029,15.508 Z" class="cls-1"/>
</svg>
